<svg width="606" height="1214" viewBox="0 0 606 1214" fill="none" xmlns="http://www.w3.org/2000/svg">
<mask id="path-1-inside-1" fill="white">
<path fill-rule="evenodd" clip-rule="evenodd" d="M361.565 1.16406L241.3 122.4V440.115L361.565 561.351V1.16406ZM361.565 732.805L241.3 611.568L156.408 525.99L156.555 525.842L121.036 490.036V243.636L0.771698 122.4V1213.53H121.036V661.49L481.829 1025.2V1213.53H602.094V975.276L361.565 732.805ZM241.3 1213.53V953.882L361.565 1075.12V1213.53H241.3ZM602.094 803.822L481.829 682.586V243.636L602.094 364.872V803.822Z"/>
</mask>
<path d="M241.3 122.4L239.881 120.992L239.3 121.576V122.4H241.3ZM361.565 1.16406H363.565V-3.69197L360.145 -0.244451L361.565 1.16406ZM241.3 440.115H239.3V440.938L239.881 441.523L241.3 440.115ZM361.565 561.351L360.145 562.759L363.565 566.207V561.351H361.565ZM241.3 611.568L239.881 612.977H239.881L241.3 611.568ZM361.565 732.805L360.145 734.213L361.565 732.805ZM156.408 525.99L154.989 524.581L153.591 525.989L154.988 527.398L156.408 525.99ZM156.555 525.842L157.975 527.251L159.372 525.842L157.975 524.433L156.555 525.842ZM121.036 490.036H119.036V490.86L119.616 491.445L121.036 490.036ZM121.036 243.636H123.036V242.813L122.456 242.228L121.036 243.636ZM0.771698 122.4L2.19159 120.992L-1.2283 117.544V122.4H0.771698ZM0.771698 1213.53H-1.2283V1215.53H0.771698V1213.53ZM121.036 1213.53V1215.53H123.036V1213.53H121.036ZM121.036 661.49L122.456 660.081L119.036 656.634V661.49H121.036ZM481.829 1025.2H483.829V1024.37L483.249 1023.79L481.829 1025.2ZM481.829 1213.53H479.829V1215.53H481.829V1213.53ZM602.094 1213.53V1215.53H604.094V1213.53H602.094ZM602.094 975.276H604.094V974.452L603.514 973.867L602.094 975.276ZM241.3 953.882L242.72 952.474L239.3 949.026V953.882H241.3ZM241.3 1213.53H239.3V1215.53H241.3V1213.53ZM361.565 1075.12H363.565V1074.29L362.985 1073.71L361.565 1075.12ZM361.565 1213.53V1215.53H363.565V1213.53H361.565ZM481.829 682.586H479.829V683.409L480.409 683.994L481.829 682.586ZM602.094 803.822L600.674 805.23L604.094 808.678V803.822H602.094ZM481.829 243.636L483.249 242.228L479.829 238.78V243.636H481.829ZM602.094 364.872H604.094V364.049L603.514 363.464L602.094 364.872ZM242.72 123.809L362.985 2.57258L360.145 -0.244451L239.881 120.992L242.72 123.809ZM243.3 440.115V122.4H239.3V440.115H243.3ZM362.985 559.942L242.72 438.706L239.881 441.523L360.145 562.759L362.985 559.942ZM359.565 1.16406V561.351H363.565V1.16406H359.565ZM239.881 612.977L360.145 734.213L362.985 731.396L242.72 610.16L239.881 612.977ZM242.72 610.16L157.828 524.581L154.988 527.398L239.881 612.977L242.72 610.16ZM157.828 527.398L157.975 527.251L155.135 524.433L154.989 524.581L157.828 527.398ZM157.975 524.433L122.456 488.628L119.616 491.445L155.135 527.25L157.975 524.433ZM123.036 490.036V243.636H119.036V490.036H123.036ZM122.456 242.228L2.19159 120.992L-0.648193 123.809L119.616 245.045L122.456 242.228ZM-1.2283 122.4V1213.53H2.7717V122.4H-1.2283ZM0.771698 1215.53H121.036V1211.53H0.771698V1215.53ZM123.036 1213.53V661.49H119.036V1213.53H123.036ZM119.616 662.898L480.409 1026.61L483.249 1023.79L122.456 660.081L119.616 662.898ZM479.829 1025.2V1213.53H483.829V1025.2H479.829ZM481.829 1215.53H602.094V1211.53H481.829V1215.53ZM604.094 1213.53V975.276H600.094V1213.53H604.094ZM603.514 973.867L362.985 731.396L360.145 734.213L600.674 976.684L603.514 973.867ZM239.3 953.882V1213.53H243.3V953.882H239.3ZM362.985 1073.71L242.72 952.474L239.881 955.291L360.145 1076.53L362.985 1073.71ZM363.565 1213.53V1075.12H359.565V1213.53H363.565ZM241.3 1215.53H361.565V1211.53H241.3V1215.53ZM480.409 683.994L600.674 805.23L603.514 802.413L483.249 681.177L480.409 683.994ZM479.829 243.636V682.586H483.829V243.636H479.829ZM603.514 363.464L483.249 242.228L480.409 245.045L600.674 366.281L603.514 363.464ZM604.094 803.822V364.872H600.094V803.822H604.094Z" fill="#BDB196" mask="url(#path-1-inside-1)"/>
</svg>
