<svg width="332" height="663" viewBox="0 0 332 663" fill="none" xmlns="http://www.w3.org/2000/svg">
<path fill-rule="evenodd" clip-rule="evenodd" d="M198.085 0.635254L132.198 66.8004V240.194L198.085 306.36V0.635254ZM198.085 399.931L132.198 333.766L85.6891 287.061L85.7694 286.98L66.3103 267.439V132.966L0.422852 66.8004V662.286H66.3103V361.011L263.972 559.505V662.286H329.86V532.261L198.085 399.931ZM132.198 662.286V520.585L198.085 586.75V662.286H132.198ZM329.86 438.689L263.972 372.524V132.966L329.86 199.131V438.689Z" fill="#14213D"/>
</svg>
