<svg width="24" height="32" viewBox="0 0 24 32" fill="none" xmlns="http://www.w3.org/2000/svg">
<path fill-rule="evenodd" clip-rule="evenodd" d="M21.5 2.5H2.5V29.5H21.5V2.5ZM2.5 0H0V2.5V29.5V32H2.5H21.5H24V29.5V2.5V0H21.5H2.5ZM7 8H11V12H7V8ZM11 14H7V18H11V14ZM7 20H11V24H7V20ZM17 8H13V12H17V8ZM13 14H17V18H13V14ZM17 20H13V24H17V20Z" fill="#BDB196"/>
</svg>
